…
## # A tibble: 5 × 12
##   faculty_type   `1975` `1989` `1993` `1995` `1999` `2001`
##   <chr>           <dbl>  <dbl>  <dbl>  <dbl>  <dbl>  <dbl>
## 1 Full-Time Ten…   29     27.6   25     24.8   21.8   20.3
## 2 Full-Time Ten…   16.1   11.4   10.2    9.6    8.9    9.2
## 3 Full-Time Non…   10.3   14.1   13.6   13.6   15.2   15.5
## 4 Part-Time Fac…   24     30.4   33.1   33.2   35.5   36  
## 5 Graduate Stud…   20.5   16.5   18.1   18.8   18.7   19  
## # ℹ 5 more variables: `2003` <dbl>, `2005` <dbl>,
## #   `2007` <dbl>, `2009` <dbl>, `2011` <dbl>

superheroes

## # A tibble: 100 × 4
##    name            alignment gender publisher    
##    <chr>           <chr>     <chr>  <chr>        
##  1 Mystique        bad       female Marvel       
##  2 Joker           bad       male   DC           
##  3 Iron Fist       good      male   Marvel       
##  4 Veronica Lodge  good      female Archie Comics
##  5 Captain Cold    bad       male   DC           
##  6 Darkseid        bad       male   DC           
##  7 Abe Sapien      good      male   Dark Horse   
##  8 King Vold       bad       male   Dark Horse   
##  9 Captain America good      male   Marvel       
## 10 Archie Andrews  good      male   Archie Comics
## # ℹ 90 more rows
…
