…
``` r
superheroes
```

    ## # A tibble: 100 × 4
    ##    name            alignment gender publisher    
    ##    <chr>           <chr>     <chr>  <chr>        
    ##  1 Mystique        bad       female Marvel       
    ##  2 Joker           bad       male   DC           
    ##  3 Iron Fist       good      male   Marvel       
    ##  4 Veronica Lodge  good      female Archie Comics
    ##  5 Captain Cold    bad       male   DC           
    ##  6 Darkseid        bad       male   DC           
    ##  7 Abe Sapien      good      male   Dark Horse   
    ##  8 King Vold       bad       male   Dark Horse   
    ##  9 Captain America good      male   Marvel       
    ## 10 Archie Andrews  good      male   Archie Comics
    ## # ℹ 90 more rows
…
